{
  "data": [{
    "type": "products",
    "id": "1",
    "attributes": {
      "title": "CCCP",
      "default_variant_id": "1-1"
    },
    "relationships": {
      "styles": {
        "data": [
          {"id": "1-1", "type": "variants"},
          {"id": "1-2", "type": "variants"}
        ]
      }
    }
  },
  {
    "type": "products",
    "id": "2",
    "attributes": {
      "title": "Vietnam War",
      "default_variant_id": "2-1"
    },
    "relationships": {
      "styles": {
        "data": [
          {"id": "2-1", "type": "variants"},
          {"id": "2-2", "type": "variants"}
        ]
      }
    }
  }],
  "included": [
    {
      "type": "variants",
      "id": "1-1",
      "attributes": {
        "style": "man t-shirt",
        "default_variant_id": "1-1-1"
      },
      "relationships": {
        "colors": {
          "data": [
            {"id": "1-1-1", "type": "variants"},
            {"id": "1-1-2", "type": "variants"}
          ]
        }
      }
    },
    {
      "type": "variants",
      "id": "1-2",
      "attributes": {
        "style": "woman t-shirt",
        "default_variant_id": "1-2-1"
      },
      "relationships": {
        "colors": {
          "data": [
            {"id": "1-2-1", "type": "variants"},
            {"id": "1-2-2", "type": "variants"}
          ]
        }
      }
    },
    {
      "type": "variants",
      "id": "1-1-1",
      "attributes": {
        "price": 21,
        "currency": "EUR",
        "color": "#FFFFFF",
        "image": "assets/images/catalog/1/1-1-1-man_white_tshirt.jpg"
      }
    },
    {
      "type": "variants",
      "id": "1-1-2",
      "attributes": {
        "price": 21,
        "currency": "EUR",
        "color": "#CCCCCC",
        "image": "assets/images/catalog/1/1-1-2-man_grey_tshirt.jpg"
      }
    },
    {
      "type": "variants",
      "id": "1-2-1",
      "attributes": {
        "price": 21,
        "currency": "EUR",
        "color": "#000000",
        "image": "assets/images/catalog/1/1-2-1-woman_black_tshirt.jpg"
      }
    },
    {
      "type": "variants",
      "id": "1-2-2",
      "attributes": {
        "price": 21,
        "currency": "EUR",
        "color": "#FFFFFF",
        "image": "assets/images/catalog/1/1-2-2-woman_white_tshirt.jpg"
      }
    },
    {
      "type": "variants",
      "id": "2-1",
      "attributes": {
        "style": "man t-shirt",
        "default_variant_id": "2-1-1"
      },
      "relationships": {
        "colors": {
          "data": [
            {"id": "2-1-1", "type": "variants"},
            {"id": "2-1-2", "type": "variants"}
          ]
        }
      }
    },
    {
      "type": "variants",
      "id": "2-2",
      "attributes": {
        "style": "woman t-shirt",
        "default_variant_id": "2-2-1"
      },
      "relationships": {
        "colors": {
          "data": [
            {"id": "2-2-1", "type": "variants"},
            {"id": "2-2-2", "type": "variants"}
          ]
        }
      }
    },
    {
      "type": "variants",
      "id": "2-1-1",
      "attributes": {
        "price": 16,
        "currency": "EUR",
        "color": "#FFFFFF",
        "image": "assets/images/catalog/2/2-1-1-man_white_tshirt.jpg"
      }
    },
    {
      "type": "variants",
      "id": "2-1-2",
      "attributes": {
        "price": 16,
        "currency": "EUR",
        "color": "#CCCCCC",
        "image": "assets/images/catalog/2/2-1-2-man_grey_tshirt.jpg"
      }
    },
    {
      "type": "variants",
      "id": "2-2-1",
      "attributes": {
        "price": 15,
        "currency": "EUR",
        "color": "#000000",
        "image": "assets/images/catalog/2/2-2-1-woman_black_tshirt.jpg"
      }
    },
    {
      "type": "variants",
      "id": "2-2-2",
      "attributes": {
        "price": 15,
        "currency": "EUR",
        "color": "#FFFFFF",
        "image": "assets/images/catalog/2/2-2-2-woman_white_tshirt.jpg"
      }
    }
  ]
}